<svg xmlns="http://www.w3.org/2000/svg" xmlns:xlink="http://www.w3.org/1999/xlink" xmlns:bx="https://boxy-svg.com">
        <defs>
                <clipPath id="clip0">
                        <path fill="#fff" d="M0 0h16v16H0z" />
                </clipPath>
                <clipPath id="a">
                        <path d="M0 0h71v55H0z" />
                </clipPath>
        </defs>
		
        <symbol id="arrow_left" viewBox="0 0 19 14">
                <path d="M7.028 0L0 6.97.03 7 0 7.03 7.028 14l2.115-2.097-3.39-3.36H19V5.426H5.784l3.358-3.33L7.027 0z"
                />
        </symbol>
</svg>
